
# measureA57
## ring0_throttle_mask=0x00000040 niso_throttle_mask=0x00000000 niso_throttle_mask_1=0x00000000 ring1_throttle=0x00000000 ring3_throttle=0x00000000 niso_throttle=0x00000000 outstanding_req=0x00000000 outstanding_req_ring3=0x80000001 outstanding_req_niso=0x00000000
T0 M 3.267870 
## ring0_throttle_mask=0x00000040 niso_throttle_mask=0x00000000 niso_throttle_mask_1=0x00000000 ring1_throttle=0x00000000 ring3_throttle=0x00010001 niso_throttle=0x00000000 outstanding_req=0x00000000 outstanding_req_ring3=0x80000001 outstanding_req_niso=0x00000000
T1 M 3.248962 
## ring0_throttle_mask=0x00000040 niso_throttle_mask=0x00000000 niso_throttle_mask_1=0x00000000 ring1_throttle=0x00000000 ring3_throttle=0x00020002 niso_throttle=0x00000000 outstanding_req=0x00000000 outstanding_req_ring3=0x80000001 outstanding_req_niso=0x00000000
T2 M 3.270715 
## ring0_throttle_mask=0x00000040 niso_throttle_mask=0x00000000 niso_throttle_mask_1=0x00000000 ring1_throttle=0x00000000 ring3_throttle=0x00040004 niso_throttle=0x00000000 outstanding_req=0x00000000 outstanding_req_ring3=0x80000001 outstanding_req_niso=0x00000000
T4 M 3.240164 
## ring0_throttle_mask=0x00000040 niso_throttle_mask=0x00000000 niso_throttle_mask_1=0x00000000 ring1_throttle=0x00000000 ring3_throttle=0x00080008 niso_throttle=0x00000000 outstanding_req=0x00000000 outstanding_req_ring3=0x80000001 outstanding_req_niso=0x00000000
T8 M 3.281628 
## ring0_throttle_mask=0x00000040 niso_throttle_mask=0x00000000 niso_throttle_mask_1=0x00000000 ring1_throttle=0x00000000 ring3_throttle=0x00100010 niso_throttle=0x00000000 outstanding_req=0x00000000 outstanding_req_ring3=0x80000001 outstanding_req_niso=0x00000000
T16 M 3.261511 
## ring0_throttle_mask=0x00000040 niso_throttle_mask=0x00000000 niso_throttle_mask_1=0x00000000 ring1_throttle=0x00000000 ring3_throttle=0x001F001F niso_throttle=0x00000000 outstanding_req=0x00000000 outstanding_req_ring3=0x80000001 outstanding_req_niso=0x00000000
T31 M 3.247001 

# measurePascal
## ring0_throttle_mask=0x00000040 niso_throttle_mask=0x00000000 niso_throttle_mask_1=0x00000000 ring1_throttle=0x00000000 ring3_throttle=0x00000000 niso_throttle=0x00000000 outstanding_req=0x00000000 outstanding_req_ring3=0x80000001 outstanding_req_niso=0x00000000
T0 M 36.230633 
## ring0_throttle_mask=0x00000040 niso_throttle_mask=0x00000000 niso_throttle_mask_1=0x00000000 ring1_throttle=0x00000000 ring3_throttle=0x00010001 niso_throttle=0x00000000 outstanding_req=0x00000000 outstanding_req_ring3=0x80000001 outstanding_req_niso=0x00000000
T1 M 36.554913 
## ring0_throttle_mask=0x00000040 niso_throttle_mask=0x00000000 niso_throttle_mask_1=0x00000000 ring1_throttle=0x00000000 ring3_throttle=0x00020002 niso_throttle=0x00000000 outstanding_req=0x00000000 outstanding_req_ring3=0x80000001 outstanding_req_niso=0x00000000
T2 M 36.652039 
## ring0_throttle_mask=0x00000040 niso_throttle_mask=0x00000000 niso_throttle_mask_1=0x00000000 ring1_throttle=0x00000000 ring3_throttle=0x00040004 niso_throttle=0x00000000 outstanding_req=0x00000000 outstanding_req_ring3=0x80000001 outstanding_req_niso=0x00000000
T4 M 36.292614 
## ring0_throttle_mask=0x00000040 niso_throttle_mask=0x00000000 niso_throttle_mask_1=0x00000000 ring1_throttle=0x00000000 ring3_throttle=0x00080008 niso_throttle=0x00000000 outstanding_req=0x00000000 outstanding_req_ring3=0x80000001 outstanding_req_niso=0x00000000
T8 M 36.327888 
## ring0_throttle_mask=0x00000040 niso_throttle_mask=0x00000000 niso_throttle_mask_1=0x00000000 ring1_throttle=0x00000000 ring3_throttle=0x00100010 niso_throttle=0x00000000 outstanding_req=0x00000000 outstanding_req_ring3=0x80000001 outstanding_req_niso=0x00000000
T16 M 36.121307 
## ring0_throttle_mask=0x00000040 niso_throttle_mask=0x00000000 niso_throttle_mask_1=0x00000000 ring1_throttle=0x00000000 ring3_throttle=0x001F001F niso_throttle=0x00000000 outstanding_req=0x00000000 outstanding_req_ring3=0x80000001 outstanding_req_niso=0x00000000
T31 M 36.212204 

# measurePascal interfA57 threads1
## ring0_throttle_mask=0x00000040 niso_throttle_mask=0x00000000 niso_throttle_mask_1=0x00000000 ring1_throttle=0x00000000 ring3_throttle=0x00000000 niso_throttle=0x00000000 outstanding_req=0x00000000 outstanding_req_ring3=0x80000001 outstanding_req_niso=0x00000000
T0 M 33.852104 I0 3.048274 
## ring0_throttle_mask=0x00000040 niso_throttle_mask=0x00000000 niso_throttle_mask_1=0x00000000 ring1_throttle=0x00000000 ring3_throttle=0x00010001 niso_throttle=0x00000000 outstanding_req=0x00000000 outstanding_req_ring3=0x80000001 outstanding_req_niso=0x00000000
T1 M 33.761700 I0 3.043844 
## ring0_throttle_mask=0x00000040 niso_throttle_mask=0x00000000 niso_throttle_mask_1=0x00000000 ring1_throttle=0x00000000 ring3_throttle=0x00020002 niso_throttle=0x00000000 outstanding_req=0x00000000 outstanding_req_ring3=0x80000001 outstanding_req_niso=0x00000000
T2 M 33.654408 I0 3.053999 
## ring0_throttle_mask=0x00000040 niso_throttle_mask=0x00000000 niso_throttle_mask_1=0x00000000 ring1_throttle=0x00000000 ring3_throttle=0x00040004 niso_throttle=0x00000000 outstanding_req=0x00000000 outstanding_req_ring3=0x80000001 outstanding_req_niso=0x00000000
T4 M 33.672016 I0 3.063396 
## ring0_throttle_mask=0x00000040 niso_throttle_mask=0x00000000 niso_throttle_mask_1=0x00000000 ring1_throttle=0x00000000 ring3_throttle=0x00080008 niso_throttle=0x00000000 outstanding_req=0x00000000 outstanding_req_ring3=0x80000001 outstanding_req_niso=0x00000000
T8 M 33.632778 I0 3.063195 
## ring0_throttle_mask=0x00000040 niso_throttle_mask=0x00000000 niso_throttle_mask_1=0x00000000 ring1_throttle=0x00000000 ring3_throttle=0x00100010 niso_throttle=0x00000000 outstanding_req=0x00000000 outstanding_req_ring3=0x80000001 outstanding_req_niso=0x00000000
T16 M 33.508663 I0 3.033088 
## ring0_throttle_mask=0x00000040 niso_throttle_mask=0x00000000 niso_throttle_mask_1=0x00000000 ring1_throttle=0x00000000 ring3_throttle=0x001F001F niso_throttle=0x00000000 outstanding_req=0x00000000 outstanding_req_ring3=0x80000001 outstanding_req_niso=0x00000000
T31 M 33.803017 I0 3.048669 

# measurePascal interfA57 threads2
## ring0_throttle_mask=0x00000040 niso_throttle_mask=0x00000000 niso_throttle_mask_1=0x00000000 ring1_throttle=0x00000000 ring3_throttle=0x00000000 niso_throttle=0x00000000 outstanding_req=0x00000000 outstanding_req_ring3=0x80000001 outstanding_req_niso=0x00000000
T0 M 32.024303 I0 2.549858 I1 2.104305 
## ring0_throttle_mask=0x00000040 niso_throttle_mask=0x00000000 niso_throttle_mask_1=0x00000000 ring1_throttle=0x00000000 ring3_throttle=0x00010001 niso_throttle=0x00000000 outstanding_req=0x00000000 outstanding_req_ring3=0x80000001 outstanding_req_niso=0x00000000
T1 M 32.039200 I0 2.548443 I1 2.103128 
## ring0_throttle_mask=0x00000040 niso_throttle_mask=0x00000000 niso_throttle_mask_1=0x00000000 ring1_throttle=0x00000000 ring3_throttle=0x00020002 niso_throttle=0x00000000 outstanding_req=0x00000000 outstanding_req_ring3=0x80000001 outstanding_req_niso=0x00000000
T2 M 32.126789 I0 2.547735 I1 2.103148 
## ring0_throttle_mask=0x00000040 niso_throttle_mask=0x00000000 niso_throttle_mask_1=0x00000000 ring1_throttle=0x00000000 ring3_throttle=0x00040004 niso_throttle=0x00000000 outstanding_req=0x00000000 outstanding_req_ring3=0x80000001 outstanding_req_niso=0x00000000
T4 M 32.064217 I0 2.559174 I1 2.108421 
## ring0_throttle_mask=0x00000040 niso_throttle_mask=0x00000000 niso_throttle_mask_1=0x00000000 ring1_throttle=0x00000000 ring3_throttle=0x00080008 niso_throttle=0x00000000 outstanding_req=0x00000000 outstanding_req_ring3=0x80000001 outstanding_req_niso=0x00000000
T8 M 32.171185 I0 2.564987 I1 2.113631 
## ring0_throttle_mask=0x00000040 niso_throttle_mask=0x00000000 niso_throttle_mask_1=0x00000000 ring1_throttle=0x00000000 ring3_throttle=0x00100010 niso_throttle=0x00000000 outstanding_req=0x00000000 outstanding_req_ring3=0x80000001 outstanding_req_niso=0x00000000
T16 M 32.133591 I0 2.550149 I1 2.103116 
## ring0_throttle_mask=0x00000040 niso_throttle_mask=0x00000000 niso_throttle_mask_1=0x00000000 ring1_throttle=0x00000000 ring3_throttle=0x001F001F niso_throttle=0x00000000 outstanding_req=0x00000000 outstanding_req_ring3=0x80000001 outstanding_req_niso=0x00000000
T31 M 32.108257 I0 2.560261 I1 2.111250 
