
# measureA57
## ring0_throttle_mask=0x00000000 niso_throttle_mask=0x00000000 niso_throttle_mask_1=0x00000000 ring1_throttle=0x00000000 ring3_throttle=0x00000000 niso_throttle=0x00000000 outstanding_req=0x80000001 outstanding_req_ring3=0x00000000 outstanding_req_niso=0x00000000
T0 M 3.258782 
## ring0_throttle_mask=0x00000000 niso_throttle_mask=0x00000000 niso_throttle_mask_1=0x00000000 ring1_throttle=0x00010001 ring3_throttle=0x00010001 niso_throttle=0x00000000 outstanding_req=0x80000001 outstanding_req_ring3=0x00000000 outstanding_req_niso=0x00000000
T1 M 3.223002 
## ring0_throttle_mask=0x00000000 niso_throttle_mask=0x00000000 niso_throttle_mask_1=0x00000000 ring1_throttle=0x00020002 ring3_throttle=0x00020002 niso_throttle=0x00000000 outstanding_req=0x80000001 outstanding_req_ring3=0x00000000 outstanding_req_niso=0x00000000
T2 M 3.141215 
## ring0_throttle_mask=0x00000000 niso_throttle_mask=0x00000000 niso_throttle_mask_1=0x00000000 ring1_throttle=0x00040004 ring3_throttle=0x00040004 niso_throttle=0x00000000 outstanding_req=0x80000001 outstanding_req_ring3=0x00000000 outstanding_req_niso=0x00000000
T4 M 2.936772 
## ring0_throttle_mask=0x00000000 niso_throttle_mask=0x00000000 niso_throttle_mask_1=0x00000000 ring1_throttle=0x00080008 ring3_throttle=0x00080008 niso_throttle=0x00000000 outstanding_req=0x80000001 outstanding_req_ring3=0x00000000 outstanding_req_niso=0x00000000
T8 M 2.547678 
## ring0_throttle_mask=0x00000000 niso_throttle_mask=0x00000000 niso_throttle_mask_1=0x00000000 ring1_throttle=0x00100010 ring3_throttle=0x00100010 niso_throttle=0x00000000 outstanding_req=0x80000001 outstanding_req_ring3=0x00000000 outstanding_req_niso=0x00000000
T16 M 1.825871 
## ring0_throttle_mask=0x00000000 niso_throttle_mask=0x00000000 niso_throttle_mask_1=0x00000000 ring1_throttle=0x001F001F ring3_throttle=0x001F001F niso_throttle=0x00000000 outstanding_req=0x80000001 outstanding_req_ring3=0x00000000 outstanding_req_niso=0x00000000
T31 M 1.138579 

# measurePascal
## ring0_throttle_mask=0x00000000 niso_throttle_mask=0x00000000 niso_throttle_mask_1=0x00000000 ring1_throttle=0x00000000 ring3_throttle=0x00000000 niso_throttle=0x00000000 outstanding_req=0x80000001 outstanding_req_ring3=0x00000000 outstanding_req_niso=0x00000000
T0 M 36.362484 
## ring0_throttle_mask=0x00000000 niso_throttle_mask=0x00000000 niso_throttle_mask_1=0x00000000 ring1_throttle=0x00010001 ring3_throttle=0x00010001 niso_throttle=0x00000000 outstanding_req=0x80000001 outstanding_req_ring3=0x00000000 outstanding_req_niso=0x00000000
T1 M 24.955208 
## ring0_throttle_mask=0x00000000 niso_throttle_mask=0x00000000 niso_throttle_mask_1=0x00000000 ring1_throttle=0x00020002 ring3_throttle=0x00020002 niso_throttle=0x00000000 outstanding_req=0x80000001 outstanding_req_ring3=0x00000000 outstanding_req_niso=0x00000000
T2 M 16.561331 
## ring0_throttle_mask=0x00000000 niso_throttle_mask=0x00000000 niso_throttle_mask_1=0x00000000 ring1_throttle=0x00040004 ring3_throttle=0x00040004 niso_throttle=0x00000000 outstanding_req=0x80000001 outstanding_req_ring3=0x00000000 outstanding_req_niso=0x00000000
T4 M 9.896518 
## ring0_throttle_mask=0x00000000 niso_throttle_mask=0x00000000 niso_throttle_mask_1=0x00000000 ring1_throttle=0x00080008 ring3_throttle=0x00080008 niso_throttle=0x00000000 outstanding_req=0x80000001 outstanding_req_ring3=0x00000000 outstanding_req_niso=0x00000000
T8 M 5.501636 
## ring0_throttle_mask=0x00000000 niso_throttle_mask=0x00000000 niso_throttle_mask_1=0x00000000 ring1_throttle=0x00100010 ring3_throttle=0x00100010 niso_throttle=0x00000000 outstanding_req=0x80000001 outstanding_req_ring3=0x00000000 outstanding_req_niso=0x00000000
T16 M 2.946953 
## ring0_throttle_mask=0x00000000 niso_throttle_mask=0x00000000 niso_throttle_mask_1=0x00000000 ring1_throttle=0x001F001F ring3_throttle=0x001F001F niso_throttle=0x00000000 outstanding_req=0x80000001 outstanding_req_ring3=0x00000000 outstanding_req_niso=0x00000000
T31 M 1.563519 

# measurePascal interfA57 threads1
## ring0_throttle_mask=0x00000000 niso_throttle_mask=0x00000000 niso_throttle_mask_1=0x00000000 ring1_throttle=0x00000000 ring3_throttle=0x00000000 niso_throttle=0x00000000 outstanding_req=0x80000001 outstanding_req_ring3=0x00000000 outstanding_req_niso=0x00000000
T0 M 33.888168 I0 3.052811 
## ring0_throttle_mask=0x00000000 niso_throttle_mask=0x00000000 niso_throttle_mask_1=0x00000000 ring1_throttle=0x00010001 ring3_throttle=0x00010001 niso_throttle=0x00000000 outstanding_req=0x80000001 outstanding_req_ring3=0x00000000 outstanding_req_niso=0x00000000
T1 M 24.880171 I0 3.033845 
## ring0_throttle_mask=0x00000000 niso_throttle_mask=0x00000000 niso_throttle_mask_1=0x00000000 ring1_throttle=0x00020002 ring3_throttle=0x00020002 niso_throttle=0x00000000 outstanding_req=0x80000001 outstanding_req_ring3=0x00000000 outstanding_req_niso=0x00000000
T2 M 16.711082 I0 2.945008 
## ring0_throttle_mask=0x00000000 niso_throttle_mask=0x00000000 niso_throttle_mask_1=0x00000000 ring1_throttle=0x00040004 ring3_throttle=0x00040004 niso_throttle=0x00000000 outstanding_req=0x80000001 outstanding_req_ring3=0x00000000 outstanding_req_niso=0x00000000
T4 M 10.037387 I0 2.615218 
## ring0_throttle_mask=0x00000000 niso_throttle_mask=0x00000000 niso_throttle_mask_1=0x00000000 ring1_throttle=0x00080008 ring3_throttle=0x00080008 niso_throttle=0x00000000 outstanding_req=0x80000001 outstanding_req_ring3=0x00000000 outstanding_req_niso=0x00000000
T8 M 5.506691 I0 2.275379 
## ring0_throttle_mask=0x00000000 niso_throttle_mask=0x00000000 niso_throttle_mask_1=0x00000000 ring1_throttle=0x00100010 ring3_throttle=0x00100010 niso_throttle=0x00000000 outstanding_req=0x80000001 outstanding_req_ring3=0x00000000 outstanding_req_niso=0x00000000
T16 M 2.913749 I0 1.645091 
## ring0_throttle_mask=0x00000000 niso_throttle_mask=0x00000000 niso_throttle_mask_1=0x00000000 ring1_throttle=0x001F001F ring3_throttle=0x001F001F niso_throttle=0x00000000 outstanding_req=0x80000001 outstanding_req_ring3=0x00000000 outstanding_req_niso=0x00000000
T31 M 1.564352 I0 1.027538 

# measurePascal interfA57 threads2
## ring0_throttle_mask=0x00000000 niso_throttle_mask=0x00000000 niso_throttle_mask_1=0x00000000 ring1_throttle=0x00000000 ring3_throttle=0x00000000 niso_throttle=0x00000000 outstanding_req=0x80000001 outstanding_req_ring3=0x00000000 outstanding_req_niso=0x00000000
T0 M 32.071526 I0 2.543562 I1 2.091273 
## ring0_throttle_mask=0x00000000 niso_throttle_mask=0x00000000 niso_throttle_mask_1=0x00000000 ring1_throttle=0x00010001 ring3_throttle=0x00010001 niso_throttle=0x00000000 outstanding_req=0x80000001 outstanding_req_ring3=0x00000000 outstanding_req_niso=0x00000000
T1 M 24.796354 I0 2.527003 I1 2.092160 
## ring0_throttle_mask=0x00000000 niso_throttle_mask=0x00000000 niso_throttle_mask_1=0x00000000 ring1_throttle=0x00020002 ring3_throttle=0x00020002 niso_throttle=0x00000000 outstanding_req=0x80000001 outstanding_req_ring3=0x00000000 outstanding_req_niso=0x00000000
T2 M 16.519482 I0 2.480418 I1 2.041938 
## ring0_throttle_mask=0x00000000 niso_throttle_mask=0x00000000 niso_throttle_mask_1=0x00000000 ring1_throttle=0x00040004 ring3_throttle=0x00040004 niso_throttle=0x00000000 outstanding_req=0x80000001 outstanding_req_ring3=0x00000000 outstanding_req_niso=0x00000000
T4 M 9.453339 I0 2.327704 I1 1.945606 
## ring0_throttle_mask=0x00000000 niso_throttle_mask=0x00000000 niso_throttle_mask_1=0x00000000 ring1_throttle=0x00080008 ring3_throttle=0x00080008 niso_throttle=0x00000000 outstanding_req=0x80000001 outstanding_req_ring3=0x00000000 outstanding_req_niso=0x00000000
T8 M 5.568726 I0 2.044037 I1 1.680006 
## ring0_throttle_mask=0x00000000 niso_throttle_mask=0x00000000 niso_throttle_mask_1=0x00000000 ring1_throttle=0x00100010 ring3_throttle=0x00100010 niso_throttle=0x00000000 outstanding_req=0x80000001 outstanding_req_ring3=0x00000000 outstanding_req_niso=0x00000000
T16 M 2.950280 I0 1.283047 I1 1.286127 
## ring0_throttle_mask=0x00000000 niso_throttle_mask=0x00000000 niso_throttle_mask_1=0x00000000 ring1_throttle=0x001F001F ring3_throttle=0x001F001F niso_throttle=0x00000000 outstanding_req=0x80000001 outstanding_req_ring3=0x00000000 outstanding_req_niso=0x00000000
T31 M 1.539040 I0 0.790496 I1 0.790881 
