
# measureDenver2
## ring0_throttle_mask=0x00000000 niso_throttle_mask=0x00000000 niso_throttle_mask_1=0x00000000 ring1_throttle=0x00000000 ring3_throttle=0x00000000 niso_throttle=0x00000000 outstanding_req=0x00000000 outstanding_req_ring3=0x00000000 outstanding_req_niso=0x80000001
T0 M 6.953706 
## ring0_throttle_mask=0x00000000 niso_throttle_mask=0x00000000 niso_throttle_mask_1=0x00000000 ring1_throttle=0x00000000 ring3_throttle=0x00000000 niso_throttle=0x00010000 outstanding_req=0x00000000 outstanding_req_ring3=0x00000000 outstanding_req_niso=0x80000001
T1 M 6.952996 
## ring0_throttle_mask=0x00000000 niso_throttle_mask=0x00000000 niso_throttle_mask_1=0x00000000 ring1_throttle=0x00000000 ring3_throttle=0x00000000 niso_throttle=0x00020000 outstanding_req=0x00000000 outstanding_req_ring3=0x00000000 outstanding_req_niso=0x80000001
T2 M 6.945837 
## ring0_throttle_mask=0x00000000 niso_throttle_mask=0x00000000 niso_throttle_mask_1=0x00000000 ring1_throttle=0x00000000 ring3_throttle=0x00000000 niso_throttle=0x00040000 outstanding_req=0x00000000 outstanding_req_ring3=0x00000000 outstanding_req_niso=0x80000001
T4 M 6.952557 
## ring0_throttle_mask=0x00000000 niso_throttle_mask=0x00000000 niso_throttle_mask_1=0x00000000 ring1_throttle=0x00000000 ring3_throttle=0x00000000 niso_throttle=0x00080000 outstanding_req=0x00000000 outstanding_req_ring3=0x00000000 outstanding_req_niso=0x80000001
T8 M 5.379686 
## ring0_throttle_mask=0x00000000 niso_throttle_mask=0x00000000 niso_throttle_mask_1=0x00000000 ring1_throttle=0x00000000 ring3_throttle=0x00000000 niso_throttle=0x00100000 outstanding_req=0x00000000 outstanding_req_ring3=0x00000000 outstanding_req_niso=0x80000001
T16 M 2.867624 
## ring0_throttle_mask=0x00000000 niso_throttle_mask=0x00000000 niso_throttle_mask_1=0x00000000 ring1_throttle=0x00000000 ring3_throttle=0x00000000 niso_throttle=0x001F0000 outstanding_req=0x00000000 outstanding_req_ring3=0x00000000 outstanding_req_niso=0x80000001
T31 M 1.528325 

# measurePascal
## ring0_throttle_mask=0x00000000 niso_throttle_mask=0x00000000 niso_throttle_mask_1=0x00000000 ring1_throttle=0x00000000 ring3_throttle=0x00000000 niso_throttle=0x00000000 outstanding_req=0x00000000 outstanding_req_ring3=0x00000000 outstanding_req_niso=0x80000001
T0 M 35.833118 
## ring0_throttle_mask=0x00000000 niso_throttle_mask=0x00000000 niso_throttle_mask_1=0x00000000 ring1_throttle=0x00000000 ring3_throttle=0x00000000 niso_throttle=0x00010000 outstanding_req=0x00000000 outstanding_req_ring3=0x00000000 outstanding_req_niso=0x80000001
T1 M 35.404472 
## ring0_throttle_mask=0x00000000 niso_throttle_mask=0x00000000 niso_throttle_mask_1=0x00000000 ring1_throttle=0x00000000 ring3_throttle=0x00000000 niso_throttle=0x00020000 outstanding_req=0x00000000 outstanding_req_ring3=0x00000000 outstanding_req_niso=0x80000001
T2 M 35.578331 
## ring0_throttle_mask=0x00000000 niso_throttle_mask=0x00000000 niso_throttle_mask_1=0x00000000 ring1_throttle=0x00000000 ring3_throttle=0x00000000 niso_throttle=0x00040000 outstanding_req=0x00000000 outstanding_req_ring3=0x00000000 outstanding_req_niso=0x80000001
T4 M 35.513424 
## ring0_throttle_mask=0x00000000 niso_throttle_mask=0x00000000 niso_throttle_mask_1=0x00000000 ring1_throttle=0x00000000 ring3_throttle=0x00000000 niso_throttle=0x00080000 outstanding_req=0x00000000 outstanding_req_ring3=0x00000000 outstanding_req_niso=0x80000001
T8 M 35.854500 
## ring0_throttle_mask=0x00000000 niso_throttle_mask=0x00000000 niso_throttle_mask_1=0x00000000 ring1_throttle=0x00000000 ring3_throttle=0x00000000 niso_throttle=0x00100000 outstanding_req=0x00000000 outstanding_req_ring3=0x00000000 outstanding_req_niso=0x80000001
T16 M 35.840858 
## ring0_throttle_mask=0x00000000 niso_throttle_mask=0x00000000 niso_throttle_mask_1=0x00000000 ring1_throttle=0x00000000 ring3_throttle=0x00000000 niso_throttle=0x001F0000 outstanding_req=0x00000000 outstanding_req_ring3=0x00000000 outstanding_req_niso=0x80000001
T31 M 35.842098 

# measurePascal interfDenver2 threads1
## ring0_throttle_mask=0x00000000 niso_throttle_mask=0x00000000 niso_throttle_mask_1=0x00000000 ring1_throttle=0x00000000 ring3_throttle=0x00000000 niso_throttle=0x00000000 outstanding_req=0x00000000 outstanding_req_ring3=0x00000000 outstanding_req_niso=0x80000001
T0 M 30.314766 I0 6.621059 
## ring0_throttle_mask=0x00000000 niso_throttle_mask=0x00000000 niso_throttle_mask_1=0x00000000 ring1_throttle=0x00000000 ring3_throttle=0x00000000 niso_throttle=0x00010000 outstanding_req=0x00000000 outstanding_req_ring3=0x00000000 outstanding_req_niso=0x80000001
T1 M 30.586052 I0 6.626495 
## ring0_throttle_mask=0x00000000 niso_throttle_mask=0x00000000 niso_throttle_mask_1=0x00000000 ring1_throttle=0x00000000 ring3_throttle=0x00000000 niso_throttle=0x00020000 outstanding_req=0x00000000 outstanding_req_ring3=0x00000000 outstanding_req_niso=0x80000001
T2 M 30.240313 I0 6.665279 
## ring0_throttle_mask=0x00000000 niso_throttle_mask=0x00000000 niso_throttle_mask_1=0x00000000 ring1_throttle=0x00000000 ring3_throttle=0x00000000 niso_throttle=0x00040000 outstanding_req=0x00000000 outstanding_req_ring3=0x00000000 outstanding_req_niso=0x80000001
T4 M 30.524769 I0 6.489732 
## ring0_throttle_mask=0x00000000 niso_throttle_mask=0x00000000 niso_throttle_mask_1=0x00000000 ring1_throttle=0x00000000 ring3_throttle=0x00000000 niso_throttle=0x00080000 outstanding_req=0x00000000 outstanding_req_ring3=0x00000000 outstanding_req_niso=0x80000001
T8 M 30.536797 I0 4.447779 
## ring0_throttle_mask=0x00000000 niso_throttle_mask=0x00000000 niso_throttle_mask_1=0x00000000 ring1_throttle=0x00000000 ring3_throttle=0x00000000 niso_throttle=0x00100000 outstanding_req=0x00000000 outstanding_req_ring3=0x00000000 outstanding_req_niso=0x80000001
T16 M 32.284115 I0 2.177860 
## ring0_throttle_mask=0x00000000 niso_throttle_mask=0x00000000 niso_throttle_mask_1=0x00000000 ring1_throttle=0x00000000 ring3_throttle=0x00000000 niso_throttle=0x001F0000 outstanding_req=0x00000000 outstanding_req_ring3=0x00000000 outstanding_req_niso=0x80000001
T31 M 33.655033 I0 1.158518 

# measurePascal interfDenver2 threads2
## ring0_throttle_mask=0x00000000 niso_throttle_mask=0x00000000 niso_throttle_mask_1=0x00000000 ring1_throttle=0x00000000 ring3_throttle=0x00000000 niso_throttle=0x00000000 outstanding_req=0x00000000 outstanding_req_ring3=0x00000000 outstanding_req_niso=0x80000001
T0 M 24.919844 I0 5.906219 I1 5.941037 
## ring0_throttle_mask=0x00000000 niso_throttle_mask=0x00000000 niso_throttle_mask_1=0x00000000 ring1_throttle=0x00000000 ring3_throttle=0x00000000 niso_throttle=0x00010000 outstanding_req=0x00000000 outstanding_req_ring3=0x00000000 outstanding_req_niso=0x80000001
T1 M 23.805052 I0 5.938499 I1 5.970650 
## ring0_throttle_mask=0x00000000 niso_throttle_mask=0x00000000 niso_throttle_mask_1=0x00000000 ring1_throttle=0x00000000 ring3_throttle=0x00000000 niso_throttle=0x00020000 outstanding_req=0x00000000 outstanding_req_ring3=0x00000000 outstanding_req_niso=0x80000001
T2 M 24.880762 I0 5.874084 I1 5.905004 
## ring0_throttle_mask=0x00000000 niso_throttle_mask=0x00000000 niso_throttle_mask_1=0x00000000 ring1_throttle=0x00000000 ring3_throttle=0x00000000 niso_throttle=0x00040000 outstanding_req=0x00000000 outstanding_req_ring3=0x00000000 outstanding_req_niso=0x80000001
T4 M 24.228251 I0 4.775291 I1 4.139290 
## ring0_throttle_mask=0x00000000 niso_throttle_mask=0x00000000 niso_throttle_mask_1=0x00000000 ring1_throttle=0x00000000 ring3_throttle=0x00000000 niso_throttle=0x00080000 outstanding_req=0x00000000 outstanding_req_ring3=0x00000000 outstanding_req_niso=0x80000001
T8 M 28.508612 I0 2.902406 I1 2.225623 
## ring0_throttle_mask=0x00000000 niso_throttle_mask=0x00000000 niso_throttle_mask_1=0x00000000 ring1_throttle=0x00000000 ring3_throttle=0x00000000 niso_throttle=0x00100000 outstanding_req=0x00000000 outstanding_req_ring3=0x00000000 outstanding_req_niso=0x80000001
T16 M 31.988152 I0 1.517817 I1 1.041684 
## ring0_throttle_mask=0x00000000 niso_throttle_mask=0x00000000 niso_throttle_mask_1=0x00000000 ring1_throttle=0x00000000 ring3_throttle=0x00000000 niso_throttle=0x001F0000 outstanding_req=0x00000000 outstanding_req_ring3=0x00000000 outstanding_req_niso=0x80000001
T31 M 33.514343 I0 0.795221 I1 0.556766 
