
# measureDenver2
## ring0_throttle_mask=0x00008080 niso_throttle_mask=0x00000000 niso_throttle_mask_1=0x00000000 ring1_throttle=0x00000000 ring3_throttle=0x00000000 niso_throttle=0x00000000 outstanding_req=0x80000001 outstanding_req_ring3=0x00000000 outstanding_req_niso=0x00000000
T0 M 6.921951 
## ring0_throttle_mask=0x00008080 niso_throttle_mask=0x00000000 niso_throttle_mask_1=0x00000000 ring1_throttle=0x00000001 ring3_throttle=0x00000000 niso_throttle=0x00000000 outstanding_req=0x80000001 outstanding_req_ring3=0x00000000 outstanding_req_niso=0x00000000
T1 M 6.925027 
## ring0_throttle_mask=0x00008080 niso_throttle_mask=0x00000000 niso_throttle_mask_1=0x00000000 ring1_throttle=0x00000002 ring3_throttle=0x00000000 niso_throttle=0x00000000 outstanding_req=0x80000001 outstanding_req_ring3=0x00000000 outstanding_req_niso=0x00000000
T2 M 6.936502 
## ring0_throttle_mask=0x00008080 niso_throttle_mask=0x00000000 niso_throttle_mask_1=0x00000000 ring1_throttle=0x00000004 ring3_throttle=0x00000000 niso_throttle=0x00000000 outstanding_req=0x80000001 outstanding_req_ring3=0x00000000 outstanding_req_niso=0x00000000
T4 M 6.905663 
## ring0_throttle_mask=0x00008080 niso_throttle_mask=0x00000000 niso_throttle_mask_1=0x00000000 ring1_throttle=0x00000008 ring3_throttle=0x00000000 niso_throttle=0x00000000 outstanding_req=0x80000001 outstanding_req_ring3=0x00000000 outstanding_req_niso=0x00000000
T8 M 6.882588 
## ring0_throttle_mask=0x00008080 niso_throttle_mask=0x00000000 niso_throttle_mask_1=0x00000000 ring1_throttle=0x00000010 ring3_throttle=0x00000000 niso_throttle=0x00000000 outstanding_req=0x80000001 outstanding_req_ring3=0x00000000 outstanding_req_niso=0x00000000
T16 M 6.880984 
## ring0_throttle_mask=0x00008080 niso_throttle_mask=0x00000000 niso_throttle_mask_1=0x00000000 ring1_throttle=0x0000001F ring3_throttle=0x00000000 niso_throttle=0x00000000 outstanding_req=0x80000001 outstanding_req_ring3=0x00000000 outstanding_req_niso=0x00000000
T31 M 6.887146 

# measurePascal
## ring0_throttle_mask=0x00008080 niso_throttle_mask=0x00000000 niso_throttle_mask_1=0x00000000 ring1_throttle=0x00000000 ring3_throttle=0x00000000 niso_throttle=0x00000000 outstanding_req=0x80000001 outstanding_req_ring3=0x00000000 outstanding_req_niso=0x00000000
T0 M 36.090385 
## ring0_throttle_mask=0x00008080 niso_throttle_mask=0x00000000 niso_throttle_mask_1=0x00000000 ring1_throttle=0x00000001 ring3_throttle=0x00000000 niso_throttle=0x00000000 outstanding_req=0x80000001 outstanding_req_ring3=0x00000000 outstanding_req_niso=0x00000000
T1 M 35.725117 
## ring0_throttle_mask=0x00008080 niso_throttle_mask=0x00000000 niso_throttle_mask_1=0x00000000 ring1_throttle=0x00000002 ring3_throttle=0x00000000 niso_throttle=0x00000000 outstanding_req=0x80000001 outstanding_req_ring3=0x00000000 outstanding_req_niso=0x00000000
T2 M 35.942169 
## ring0_throttle_mask=0x00008080 niso_throttle_mask=0x00000000 niso_throttle_mask_1=0x00000000 ring1_throttle=0x00000004 ring3_throttle=0x00000000 niso_throttle=0x00000000 outstanding_req=0x80000001 outstanding_req_ring3=0x00000000 outstanding_req_niso=0x00000000
T4 M 35.995552 
## ring0_throttle_mask=0x00008080 niso_throttle_mask=0x00000000 niso_throttle_mask_1=0x00000000 ring1_throttle=0x00000008 ring3_throttle=0x00000000 niso_throttle=0x00000000 outstanding_req=0x80000001 outstanding_req_ring3=0x00000000 outstanding_req_niso=0x00000000
T8 M 36.038818 
## ring0_throttle_mask=0x00008080 niso_throttle_mask=0x00000000 niso_throttle_mask_1=0x00000000 ring1_throttle=0x00000010 ring3_throttle=0x00000000 niso_throttle=0x00000000 outstanding_req=0x80000001 outstanding_req_ring3=0x00000000 outstanding_req_niso=0x00000000
T16 M 35.720314 
## ring0_throttle_mask=0x00008080 niso_throttle_mask=0x00000000 niso_throttle_mask_1=0x00000000 ring1_throttle=0x0000001F ring3_throttle=0x00000000 niso_throttle=0x00000000 outstanding_req=0x80000001 outstanding_req_ring3=0x00000000 outstanding_req_niso=0x00000000
T31 M 36.061344 

# measurePascal interfDenver2 threads1
## ring0_throttle_mask=0x00008080 niso_throttle_mask=0x00000000 niso_throttle_mask_1=0x00000000 ring1_throttle=0x00000000 ring3_throttle=0x00000000 niso_throttle=0x00000000 outstanding_req=0x80000001 outstanding_req_ring3=0x00000000 outstanding_req_niso=0x00000000
T0 M 30.503942 I0 6.614514 
## ring0_throttle_mask=0x00008080 niso_throttle_mask=0x00000000 niso_throttle_mask_1=0x00000000 ring1_throttle=0x00000001 ring3_throttle=0x00000000 niso_throttle=0x00000000 outstanding_req=0x80000001 outstanding_req_ring3=0x00000000 outstanding_req_niso=0x00000000
T1 M 30.369364 I0 6.644545 
## ring0_throttle_mask=0x00008080 niso_throttle_mask=0x00000000 niso_throttle_mask_1=0x00000000 ring1_throttle=0x00000002 ring3_throttle=0x00000000 niso_throttle=0x00000000 outstanding_req=0x80000001 outstanding_req_ring3=0x00000000 outstanding_req_niso=0x00000000
T2 M 30.710136 I0 6.589972 
## ring0_throttle_mask=0x00008080 niso_throttle_mask=0x00000000 niso_throttle_mask_1=0x00000000 ring1_throttle=0x00000004 ring3_throttle=0x00000000 niso_throttle=0x00000000 outstanding_req=0x80000001 outstanding_req_ring3=0x00000000 outstanding_req_niso=0x00000000
T4 M 30.244175 I0 6.618848 
## ring0_throttle_mask=0x00008080 niso_throttle_mask=0x00000000 niso_throttle_mask_1=0x00000000 ring1_throttle=0x00000008 ring3_throttle=0x00000000 niso_throttle=0x00000000 outstanding_req=0x80000001 outstanding_req_ring3=0x00000000 outstanding_req_niso=0x00000000
T8 M 30.623508 I0 6.621910 
## ring0_throttle_mask=0x00008080 niso_throttle_mask=0x00000000 niso_throttle_mask_1=0x00000000 ring1_throttle=0x00000010 ring3_throttle=0x00000000 niso_throttle=0x00000000 outstanding_req=0x80000001 outstanding_req_ring3=0x00000000 outstanding_req_niso=0x00000000
T16 M 30.619478 I0 6.635669 
## ring0_throttle_mask=0x00008080 niso_throttle_mask=0x00000000 niso_throttle_mask_1=0x00000000 ring1_throttle=0x0000001F ring3_throttle=0x00000000 niso_throttle=0x00000000 outstanding_req=0x80000001 outstanding_req_ring3=0x00000000 outstanding_req_niso=0x00000000
T31 M 30.416100 I0 6.559301 

# measurePascal interfDenver2 threads2
## ring0_throttle_mask=0x00008080 niso_throttle_mask=0x00000000 niso_throttle_mask_1=0x00000000 ring1_throttle=0x00000000 ring3_throttle=0x00000000 niso_throttle=0x00000000 outstanding_req=0x80000001 outstanding_req_ring3=0x00000000 outstanding_req_niso=0x00000000
T0 M 25.328560 I0 5.947471 I1 5.976099 
## ring0_throttle_mask=0x00008080 niso_throttle_mask=0x00000000 niso_throttle_mask_1=0x00000000 ring1_throttle=0x00000001 ring3_throttle=0x00000000 niso_throttle=0x00000000 outstanding_req=0x80000001 outstanding_req_ring3=0x00000000 outstanding_req_niso=0x00000000
T1 M 24.131752 I0 5.883559 I1 5.914066 
## ring0_throttle_mask=0x00008080 niso_throttle_mask=0x00000000 niso_throttle_mask_1=0x00000000 ring1_throttle=0x00000002 ring3_throttle=0x00000000 niso_throttle=0x00000000 outstanding_req=0x80000001 outstanding_req_ring3=0x00000000 outstanding_req_niso=0x00000000
T2 M 25.266672 I0 5.919326 I1 5.952725 
## ring0_throttle_mask=0x00008080 niso_throttle_mask=0x00000000 niso_throttle_mask_1=0x00000000 ring1_throttle=0x00000004 ring3_throttle=0x00000000 niso_throttle=0x00000000 outstanding_req=0x80000001 outstanding_req_ring3=0x00000000 outstanding_req_niso=0x00000000
T4 M 24.792004 I0 5.893267 I1 5.927038 
## ring0_throttle_mask=0x00008080 niso_throttle_mask=0x00000000 niso_throttle_mask_1=0x00000000 ring1_throttle=0x00000008 ring3_throttle=0x00000000 niso_throttle=0x00000000 outstanding_req=0x80000001 outstanding_req_ring3=0x00000000 outstanding_req_niso=0x00000000
T8 M 24.947868 I0 5.918169 I1 5.949268 
## ring0_throttle_mask=0x00008080 niso_throttle_mask=0x00000000 niso_throttle_mask_1=0x00000000 ring1_throttle=0x00000010 ring3_throttle=0x00000000 niso_throttle=0x00000000 outstanding_req=0x80000001 outstanding_req_ring3=0x00000000 outstanding_req_niso=0x00000000
T16 M 24.789785 I0 5.946172 I1 5.978062 
## ring0_throttle_mask=0x00008080 niso_throttle_mask=0x00000000 niso_throttle_mask_1=0x00000000 ring1_throttle=0x0000001F ring3_throttle=0x00000000 niso_throttle=0x00000000 outstanding_req=0x80000001 outstanding_req_ring3=0x00000000 outstanding_req_niso=0x00000000
T31 M 24.899101 I0 5.943723 I1 5.976572 
