
# measureDenver2
## ring0_throttle_mask=0x00000000 niso_throttle_mask=0x00400000 niso_throttle_mask_1=0x00000004 ring1_throttle=0x00000000 ring3_throttle=0x00000000 niso_throttle=0x00000000 outstanding_req=0x80000001 outstanding_req_ring3=0x00000000 outstanding_req_niso=0x00000000
T0 M 6.947536 
## ring0_throttle_mask=0x00000000 niso_throttle_mask=0x00400000 niso_throttle_mask_1=0x00000004 ring1_throttle=0x00000000 ring3_throttle=0x00010001 niso_throttle=0x00010001 outstanding_req=0x80000001 outstanding_req_ring3=0x00000000 outstanding_req_niso=0x00000000
T1 M 6.920449 
## ring0_throttle_mask=0x00000000 niso_throttle_mask=0x00400000 niso_throttle_mask_1=0x00000004 ring1_throttle=0x00000000 ring3_throttle=0x00020002 niso_throttle=0x00020002 outstanding_req=0x80000001 outstanding_req_ring3=0x00000000 outstanding_req_niso=0x00000000
T2 M 6.962314 
## ring0_throttle_mask=0x00000000 niso_throttle_mask=0x00400000 niso_throttle_mask_1=0x00000004 ring1_throttle=0x00000000 ring3_throttle=0x00040004 niso_throttle=0x00040004 outstanding_req=0x80000001 outstanding_req_ring3=0x00000000 outstanding_req_niso=0x00000000
T4 M 6.957596 
## ring0_throttle_mask=0x00000000 niso_throttle_mask=0x00400000 niso_throttle_mask_1=0x00000004 ring1_throttle=0x00000000 ring3_throttle=0x00080008 niso_throttle=0x00080008 outstanding_req=0x80000001 outstanding_req_ring3=0x00000000 outstanding_req_niso=0x00000000
T8 M 5.380765 
## ring0_throttle_mask=0x00000000 niso_throttle_mask=0x00400000 niso_throttle_mask_1=0x00000004 ring1_throttle=0x00000000 ring3_throttle=0x00100010 niso_throttle=0x00100010 outstanding_req=0x80000001 outstanding_req_ring3=0x00000000 outstanding_req_niso=0x00000000
T16 M 2.874398 
## ring0_throttle_mask=0x00000000 niso_throttle_mask=0x00400000 niso_throttle_mask_1=0x00000004 ring1_throttle=0x00000000 ring3_throttle=0x001F001F niso_throttle=0x001F001F outstanding_req=0x80000001 outstanding_req_ring3=0x00000000 outstanding_req_niso=0x00000000
T31 M 1.533471 

# measurePascal
## ring0_throttle_mask=0x00000000 niso_throttle_mask=0x00400000 niso_throttle_mask_1=0x00000004 ring1_throttle=0x00000000 ring3_throttle=0x00000000 niso_throttle=0x00000000 outstanding_req=0x80000001 outstanding_req_ring3=0x00000000 outstanding_req_niso=0x00000000
T0 M 36.048908 
## ring0_throttle_mask=0x00000000 niso_throttle_mask=0x00400000 niso_throttle_mask_1=0x00000004 ring1_throttle=0x00000000 ring3_throttle=0x00010001 niso_throttle=0x00010001 outstanding_req=0x80000001 outstanding_req_ring3=0x00000000 outstanding_req_niso=0x00000000
T1 M 24.735504 
## ring0_throttle_mask=0x00000000 niso_throttle_mask=0x00400000 niso_throttle_mask_1=0x00000004 ring1_throttle=0x00000000 ring3_throttle=0x00020002 niso_throttle=0x00020002 outstanding_req=0x80000001 outstanding_req_ring3=0x00000000 outstanding_req_niso=0x00000000
T2 M 16.521685 
## ring0_throttle_mask=0x00000000 niso_throttle_mask=0x00400000 niso_throttle_mask_1=0x00000004 ring1_throttle=0x00000000 ring3_throttle=0x00040004 niso_throttle=0x00040004 outstanding_req=0x80000001 outstanding_req_ring3=0x00000000 outstanding_req_niso=0x00000000
T4 M 9.920020 
## ring0_throttle_mask=0x00000000 niso_throttle_mask=0x00400000 niso_throttle_mask_1=0x00000004 ring1_throttle=0x00000000 ring3_throttle=0x00080008 niso_throttle=0x00080008 outstanding_req=0x80000001 outstanding_req_ring3=0x00000000 outstanding_req_niso=0x00000000
T8 M 5.504953 
## ring0_throttle_mask=0x00000000 niso_throttle_mask=0x00400000 niso_throttle_mask_1=0x00000004 ring1_throttle=0x00000000 ring3_throttle=0x00100010 niso_throttle=0x00100010 outstanding_req=0x80000001 outstanding_req_ring3=0x00000000 outstanding_req_niso=0x00000000
T16 M 2.906009 
## ring0_throttle_mask=0x00000000 niso_throttle_mask=0x00400000 niso_throttle_mask_1=0x00000004 ring1_throttle=0x00000000 ring3_throttle=0x001F001F niso_throttle=0x001F001F outstanding_req=0x80000001 outstanding_req_ring3=0x00000000 outstanding_req_niso=0x00000000
T31 M 1.564434 

# measurePascal interfDenver2 threads1
## ring0_throttle_mask=0x00000000 niso_throttle_mask=0x00400000 niso_throttle_mask_1=0x00000004 ring1_throttle=0x00000000 ring3_throttle=0x00000000 niso_throttle=0x00000000 outstanding_req=0x80000001 outstanding_req_ring3=0x00000000 outstanding_req_niso=0x00000000
T0 M 30.130404 I0 6.676306 
## ring0_throttle_mask=0x00000000 niso_throttle_mask=0x00400000 niso_throttle_mask_1=0x00000004 ring1_throttle=0x00000000 ring3_throttle=0x00010001 niso_throttle=0x00010001 outstanding_req=0x80000001 outstanding_req_ring3=0x00000000 outstanding_req_niso=0x00000000
T1 M 22.956272 I0 6.677332 
## ring0_throttle_mask=0x00000000 niso_throttle_mask=0x00400000 niso_throttle_mask_1=0x00000004 ring1_throttle=0x00000000 ring3_throttle=0x00020002 niso_throttle=0x00020002 outstanding_req=0x80000001 outstanding_req_ring3=0x00000000 outstanding_req_niso=0x00000000
T2 M 15.446725 I0 6.714405 
## ring0_throttle_mask=0x00000000 niso_throttle_mask=0x00400000 niso_throttle_mask_1=0x00000004 ring1_throttle=0x00000000 ring3_throttle=0x00040004 niso_throttle=0x00040004 outstanding_req=0x80000001 outstanding_req_ring3=0x00000000 outstanding_req_niso=0x00000000
T4 M 9.351588 I0 6.557682 
## ring0_throttle_mask=0x00000000 niso_throttle_mask=0x00400000 niso_throttle_mask_1=0x00000004 ring1_throttle=0x00000000 ring3_throttle=0x00080008 niso_throttle=0x00080008 outstanding_req=0x80000001 outstanding_req_ring3=0x00000000 outstanding_req_niso=0x00000000
T8 M 5.216022 I0 4.413142 
## ring0_throttle_mask=0x00000000 niso_throttle_mask=0x00400000 niso_throttle_mask_1=0x00000004 ring1_throttle=0x00000000 ring3_throttle=0x00100010 niso_throttle=0x00100010 outstanding_req=0x80000001 outstanding_req_ring3=0x00000000 outstanding_req_niso=0x00000000
T16 M 2.912801 I0 2.381839 
## ring0_throttle_mask=0x00000000 niso_throttle_mask=0x00400000 niso_throttle_mask_1=0x00000004 ring1_throttle=0x00000000 ring3_throttle=0x001F001F niso_throttle=0x001F001F outstanding_req=0x80000001 outstanding_req_ring3=0x00000000 outstanding_req_niso=0x00000000
T31 M 1.546535 I0 1.282439 

# measurePascal interfDenver2 threads2
## ring0_throttle_mask=0x00000000 niso_throttle_mask=0x00400000 niso_throttle_mask_1=0x00000004 ring1_throttle=0x00000000 ring3_throttle=0x00000000 niso_throttle=0x00000000 outstanding_req=0x80000001 outstanding_req_ring3=0x00000000 outstanding_req_niso=0x00000000
T0 M 25.549429 I0 5.955153 I1 5.981917 
## ring0_throttle_mask=0x00000000 niso_throttle_mask=0x00400000 niso_throttle_mask_1=0x00000004 ring1_throttle=0x00000000 ring3_throttle=0x00010001 niso_throttle=0x00010001 outstanding_req=0x80000001 outstanding_req_ring3=0x00000000 outstanding_req_niso=0x00000000
T1 M 24.078007 I0 5.977115 I1 5.999561 
## ring0_throttle_mask=0x00000000 niso_throttle_mask=0x00400000 niso_throttle_mask_1=0x00000004 ring1_throttle=0x00000000 ring3_throttle=0x00020002 niso_throttle=0x00020002 outstanding_req=0x80000001 outstanding_req_ring3=0x00000000 outstanding_req_niso=0x00000000
T2 M 16.569635 I0 5.941732 I1 5.958677 
## ring0_throttle_mask=0x00000000 niso_throttle_mask=0x00400000 niso_throttle_mask_1=0x00000004 ring1_throttle=0x00000000 ring3_throttle=0x00040004 niso_throttle=0x00040004 outstanding_req=0x80000001 outstanding_req_ring3=0x00000000 outstanding_req_niso=0x00000000
T4 M 9.887059 I0 4.772625 I1 4.140914 
## ring0_throttle_mask=0x00000000 niso_throttle_mask=0x00400000 niso_throttle_mask_1=0x00000004 ring1_throttle=0x00000000 ring3_throttle=0x00080008 niso_throttle=0x00080008 outstanding_req=0x80000001 outstanding_req_ring3=0x00000000 outstanding_req_niso=0x00000000
T8 M 5.274332 I0 2.891429 I1 2.216088 
## ring0_throttle_mask=0x00000000 niso_throttle_mask=0x00400000 niso_throttle_mask_1=0x00000004 ring1_throttle=0x00000000 ring3_throttle=0x00100010 niso_throttle=0x00100010 outstanding_req=0x80000001 outstanding_req_ring3=0x00000000 outstanding_req_niso=0x00000000
T16 M 2.946242 I0 1.502792 I1 1.037891 
## ring0_throttle_mask=0x00000000 niso_throttle_mask=0x00400000 niso_throttle_mask_1=0x00000004 ring1_throttle=0x00000000 ring3_throttle=0x001F001F niso_throttle=0x001F001F outstanding_req=0x80000001 outstanding_req_ring3=0x00000000 outstanding_req_niso=0x00000000
T31 M 1.540314 I0 0.794420 I1 0.556100 
