
# measureDenver2
## ring0_throttle_mask=0x00000040 niso_throttle_mask=0x00000000 niso_throttle_mask_1=0x00000000 ring1_throttle=0x00000000 ring3_throttle=0x00000000 niso_throttle=0x00000000 outstanding_req=0x00000000 outstanding_req_ring3=0x00000000 outstanding_req_niso=0x80000001
T0 M 6.950007 
## ring0_throttle_mask=0x00000040 niso_throttle_mask=0x00000000 niso_throttle_mask_1=0x00000000 ring1_throttle=0x00000000 ring3_throttle=0x00000000 niso_throttle=0x00000001 outstanding_req=0x00000000 outstanding_req_ring3=0x00000000 outstanding_req_niso=0x80000001
T1 M 6.969208 
## ring0_throttle_mask=0x00000040 niso_throttle_mask=0x00000000 niso_throttle_mask_1=0x00000000 ring1_throttle=0x00000000 ring3_throttle=0x00000000 niso_throttle=0x00000002 outstanding_req=0x00000000 outstanding_req_ring3=0x00000000 outstanding_req_niso=0x80000001
T2 M 7.002582 
## ring0_throttle_mask=0x00000040 niso_throttle_mask=0x00000000 niso_throttle_mask_1=0x00000000 ring1_throttle=0x00000000 ring3_throttle=0x00000000 niso_throttle=0x00000004 outstanding_req=0x00000000 outstanding_req_ring3=0x00000000 outstanding_req_niso=0x80000001
T4 M 6.904907 
## ring0_throttle_mask=0x00000040 niso_throttle_mask=0x00000000 niso_throttle_mask_1=0x00000000 ring1_throttle=0x00000000 ring3_throttle=0x00000000 niso_throttle=0x00000008 outstanding_req=0x00000000 outstanding_req_ring3=0x00000000 outstanding_req_niso=0x80000001
T8 M 6.917408 
## ring0_throttle_mask=0x00000040 niso_throttle_mask=0x00000000 niso_throttle_mask_1=0x00000000 ring1_throttle=0x00000000 ring3_throttle=0x00000000 niso_throttle=0x00000010 outstanding_req=0x00000000 outstanding_req_ring3=0x00000000 outstanding_req_niso=0x80000001
T16 M 6.940322 
## ring0_throttle_mask=0x00000040 niso_throttle_mask=0x00000000 niso_throttle_mask_1=0x00000000 ring1_throttle=0x00000000 ring3_throttle=0x00000000 niso_throttle=0x0000001F outstanding_req=0x00000000 outstanding_req_ring3=0x00000000 outstanding_req_niso=0x80000001
T31 M 6.927423 

# measurePascal
## ring0_throttle_mask=0x00000040 niso_throttle_mask=0x00000000 niso_throttle_mask_1=0x00000000 ring1_throttle=0x00000000 ring3_throttle=0x00000000 niso_throttle=0x00000000 outstanding_req=0x00000000 outstanding_req_ring3=0x00000000 outstanding_req_niso=0x80000001
T0 M 35.874607 
## ring0_throttle_mask=0x00000040 niso_throttle_mask=0x00000000 niso_throttle_mask_1=0x00000000 ring1_throttle=0x00000000 ring3_throttle=0x00000000 niso_throttle=0x00000001 outstanding_req=0x00000000 outstanding_req_ring3=0x00000000 outstanding_req_niso=0x80000001
T1 M 35.679028 
## ring0_throttle_mask=0x00000040 niso_throttle_mask=0x00000000 niso_throttle_mask_1=0x00000000 ring1_throttle=0x00000000 ring3_throttle=0x00000000 niso_throttle=0x00000002 outstanding_req=0x00000000 outstanding_req_ring3=0x00000000 outstanding_req_niso=0x80000001
T2 M 35.858322 
## ring0_throttle_mask=0x00000040 niso_throttle_mask=0x00000000 niso_throttle_mask_1=0x00000000 ring1_throttle=0x00000000 ring3_throttle=0x00000000 niso_throttle=0x00000004 outstanding_req=0x00000000 outstanding_req_ring3=0x00000000 outstanding_req_niso=0x80000001
T4 M 35.719494 
## ring0_throttle_mask=0x00000040 niso_throttle_mask=0x00000000 niso_throttle_mask_1=0x00000000 ring1_throttle=0x00000000 ring3_throttle=0x00000000 niso_throttle=0x00000008 outstanding_req=0x00000000 outstanding_req_ring3=0x00000000 outstanding_req_niso=0x80000001
T8 M 36.003841 
## ring0_throttle_mask=0x00000040 niso_throttle_mask=0x00000000 niso_throttle_mask_1=0x00000000 ring1_throttle=0x00000000 ring3_throttle=0x00000000 niso_throttle=0x00000010 outstanding_req=0x00000000 outstanding_req_ring3=0x00000000 outstanding_req_niso=0x80000001
T16 M 35.833824 
## ring0_throttle_mask=0x00000040 niso_throttle_mask=0x00000000 niso_throttle_mask_1=0x00000000 ring1_throttle=0x00000000 ring3_throttle=0x00000000 niso_throttle=0x0000001F outstanding_req=0x00000000 outstanding_req_ring3=0x00000000 outstanding_req_niso=0x80000001
T31 M 36.046074 

# measurePascal interfDenver2 threads1
## ring0_throttle_mask=0x00000040 niso_throttle_mask=0x00000000 niso_throttle_mask_1=0x00000000 ring1_throttle=0x00000000 ring3_throttle=0x00000000 niso_throttle=0x00000000 outstanding_req=0x00000000 outstanding_req_ring3=0x00000000 outstanding_req_niso=0x80000001
T0 M 30.576166 I0 6.623981 
## ring0_throttle_mask=0x00000040 niso_throttle_mask=0x00000000 niso_throttle_mask_1=0x00000000 ring1_throttle=0x00000000 ring3_throttle=0x00000000 niso_throttle=0x00000001 outstanding_req=0x00000000 outstanding_req_ring3=0x00000000 outstanding_req_niso=0x80000001
T1 M 30.755354 I0 6.607515 
## ring0_throttle_mask=0x00000040 niso_throttle_mask=0x00000000 niso_throttle_mask_1=0x00000000 ring1_throttle=0x00000000 ring3_throttle=0x00000000 niso_throttle=0x00000002 outstanding_req=0x00000000 outstanding_req_ring3=0x00000000 outstanding_req_niso=0x80000001
T2 M 30.308222 I0 6.539498 
## ring0_throttle_mask=0x00000040 niso_throttle_mask=0x00000000 niso_throttle_mask_1=0x00000000 ring1_throttle=0x00000000 ring3_throttle=0x00000000 niso_throttle=0x00000004 outstanding_req=0x00000000 outstanding_req_ring3=0x00000000 outstanding_req_niso=0x80000001
T4 M 30.673992 I0 6.607759 
## ring0_throttle_mask=0x00000040 niso_throttle_mask=0x00000000 niso_throttle_mask_1=0x00000000 ring1_throttle=0x00000000 ring3_throttle=0x00000000 niso_throttle=0x00000008 outstanding_req=0x00000000 outstanding_req_ring3=0x00000000 outstanding_req_niso=0x80000001
T8 M 29.921465 I0 6.636688 
## ring0_throttle_mask=0x00000040 niso_throttle_mask=0x00000000 niso_throttle_mask_1=0x00000000 ring1_throttle=0x00000000 ring3_throttle=0x00000000 niso_throttle=0x00000010 outstanding_req=0x00000000 outstanding_req_ring3=0x00000000 outstanding_req_niso=0x80000001
T16 M 30.415735 I0 6.654062 
## ring0_throttle_mask=0x00000040 niso_throttle_mask=0x00000000 niso_throttle_mask_1=0x00000000 ring1_throttle=0x00000000 ring3_throttle=0x00000000 niso_throttle=0x0000001F outstanding_req=0x00000000 outstanding_req_ring3=0x00000000 outstanding_req_niso=0x80000001
T31 M 30.621357 I0 6.642962 

# measurePascal interfDenver2 threads2
## ring0_throttle_mask=0x00000040 niso_throttle_mask=0x00000000 niso_throttle_mask_1=0x00000000 ring1_throttle=0x00000000 ring3_throttle=0x00000000 niso_throttle=0x00000000 outstanding_req=0x00000000 outstanding_req_ring3=0x00000000 outstanding_req_niso=0x80000001
T0 M 25.143129 I0 5.936586 I1 5.966743 
## ring0_throttle_mask=0x00000040 niso_throttle_mask=0x00000000 niso_throttle_mask_1=0x00000000 ring1_throttle=0x00000000 ring3_throttle=0x00000000 niso_throttle=0x00000001 outstanding_req=0x00000000 outstanding_req_ring3=0x00000000 outstanding_req_niso=0x80000001
T1 M 24.697062 I0 5.933208 I1 5.966929 
## ring0_throttle_mask=0x00000040 niso_throttle_mask=0x00000000 niso_throttle_mask_1=0x00000000 ring1_throttle=0x00000000 ring3_throttle=0x00000000 niso_throttle=0x00000002 outstanding_req=0x00000000 outstanding_req_ring3=0x00000000 outstanding_req_niso=0x80000001
T2 M 25.185862 I0 5.884768 I1 5.919938 
## ring0_throttle_mask=0x00000040 niso_throttle_mask=0x00000000 niso_throttle_mask_1=0x00000000 ring1_throttle=0x00000000 ring3_throttle=0x00000000 niso_throttle=0x00000004 outstanding_req=0x00000000 outstanding_req_ring3=0x00000000 outstanding_req_niso=0x80000001
T4 M 25.041401 I0 5.903505 I1 5.936156 
## ring0_throttle_mask=0x00000040 niso_throttle_mask=0x00000000 niso_throttle_mask_1=0x00000000 ring1_throttle=0x00000000 ring3_throttle=0x00000000 niso_throttle=0x00000008 outstanding_req=0x00000000 outstanding_req_ring3=0x00000000 outstanding_req_niso=0x80000001
T8 M 23.994146 I0 5.907938 I1 5.945277 
## ring0_throttle_mask=0x00000040 niso_throttle_mask=0x00000000 niso_throttle_mask_1=0x00000000 ring1_throttle=0x00000000 ring3_throttle=0x00000000 niso_throttle=0x00000010 outstanding_req=0x00000000 outstanding_req_ring3=0x00000000 outstanding_req_niso=0x80000001
T16 M 24.999910 I0 5.882653 I1 5.916353 
## ring0_throttle_mask=0x00000040 niso_throttle_mask=0x00000000 niso_throttle_mask_1=0x00000000 ring1_throttle=0x00000000 ring3_throttle=0x00000000 niso_throttle=0x0000001F outstanding_req=0x00000000 outstanding_req_ring3=0x00000000 outstanding_req_niso=0x80000001
T31 M 24.864964 I0 5.906387 I1 5.935051 
