
# measureDenver2
## ring0_throttle_mask=0x00000040 niso_throttle_mask=0x00000000 niso_throttle_mask_1=0x00000000 ring1_throttle=0x00000000 ring3_throttle=0x00000000 niso_throttle=0x00000000 outstanding_req=0x80000001 outstanding_req_ring3=0x00000000 outstanding_req_niso=0x00000000
T0 M 6.955556 
## ring0_throttle_mask=0x00000040 niso_throttle_mask=0x00000000 niso_throttle_mask_1=0x00000000 ring1_throttle=0x00010001 ring3_throttle=0x00010001 niso_throttle=0x00000000 outstanding_req=0x80000001 outstanding_req_ring3=0x00000000 outstanding_req_niso=0x00000000
T1 M 6.945998 
## ring0_throttle_mask=0x00000040 niso_throttle_mask=0x00000000 niso_throttle_mask_1=0x00000000 ring1_throttle=0x00020002 ring3_throttle=0x00020002 niso_throttle=0x00000000 outstanding_req=0x80000001 outstanding_req_ring3=0x00000000 outstanding_req_niso=0x00000000
T2 M 6.757857 
## ring0_throttle_mask=0x00000040 niso_throttle_mask=0x00000000 niso_throttle_mask_1=0x00000000 ring1_throttle=0x00040004 ring3_throttle=0x00040004 niso_throttle=0x00000000 outstanding_req=0x80000001 outstanding_req_ring3=0x00000000 outstanding_req_niso=0x00000000
T4 M 6.044967 
## ring0_throttle_mask=0x00000040 niso_throttle_mask=0x00000000 niso_throttle_mask_1=0x00000000 ring1_throttle=0x00080008 ring3_throttle=0x00080008 niso_throttle=0x00000000 outstanding_req=0x80000001 outstanding_req_ring3=0x00000000 outstanding_req_niso=0x00000000
T8 M 4.839594 
## ring0_throttle_mask=0x00000040 niso_throttle_mask=0x00000000 niso_throttle_mask_1=0x00000000 ring1_throttle=0x00100010 ring3_throttle=0x00100010 niso_throttle=0x00000000 outstanding_req=0x80000001 outstanding_req_ring3=0x00000000 outstanding_req_niso=0x00000000
T16 M 3.138644 
## ring0_throttle_mask=0x00000040 niso_throttle_mask=0x00000000 niso_throttle_mask_1=0x00000000 ring1_throttle=0x001F001F ring3_throttle=0x001F001F niso_throttle=0x00000000 outstanding_req=0x80000001 outstanding_req_ring3=0x00000000 outstanding_req_niso=0x00000000
T31 M 1.861758 

# measurePascal
## ring0_throttle_mask=0x00000040 niso_throttle_mask=0x00000000 niso_throttle_mask_1=0x00000000 ring1_throttle=0x00000000 ring3_throttle=0x00000000 niso_throttle=0x00000000 outstanding_req=0x80000001 outstanding_req_ring3=0x00000000 outstanding_req_niso=0x00000000
T0 M 36.090660 
## ring0_throttle_mask=0x00000040 niso_throttle_mask=0x00000000 niso_throttle_mask_1=0x00000000 ring1_throttle=0x00010001 ring3_throttle=0x00010001 niso_throttle=0x00000000 outstanding_req=0x80000001 outstanding_req_ring3=0x00000000 outstanding_req_niso=0x00000000
T1 M 24.939367 
## ring0_throttle_mask=0x00000040 niso_throttle_mask=0x00000000 niso_throttle_mask_1=0x00000000 ring1_throttle=0x00020002 ring3_throttle=0x00020002 niso_throttle=0x00000000 outstanding_req=0x80000001 outstanding_req_ring3=0x00000000 outstanding_req_niso=0x00000000
T2 M 16.527561 
## ring0_throttle_mask=0x00000040 niso_throttle_mask=0x00000000 niso_throttle_mask_1=0x00000000 ring1_throttle=0x00040004 ring3_throttle=0x00040004 niso_throttle=0x00000000 outstanding_req=0x80000001 outstanding_req_ring3=0x00000000 outstanding_req_niso=0x00000000
T4 M 10.037895 
## ring0_throttle_mask=0x00000040 niso_throttle_mask=0x00000000 niso_throttle_mask_1=0x00000000 ring1_throttle=0x00080008 ring3_throttle=0x00080008 niso_throttle=0x00000000 outstanding_req=0x80000001 outstanding_req_ring3=0x00000000 outstanding_req_niso=0x00000000
T8 M 5.561381 
## ring0_throttle_mask=0x00000040 niso_throttle_mask=0x00000000 niso_throttle_mask_1=0x00000000 ring1_throttle=0x00100010 ring3_throttle=0x00100010 niso_throttle=0x00000000 outstanding_req=0x80000001 outstanding_req_ring3=0x00000000 outstanding_req_niso=0x00000000
T16 M 2.910378 
## ring0_throttle_mask=0x00000040 niso_throttle_mask=0x00000000 niso_throttle_mask_1=0x00000000 ring1_throttle=0x001F001F ring3_throttle=0x001F001F niso_throttle=0x00000000 outstanding_req=0x80000001 outstanding_req_ring3=0x00000000 outstanding_req_niso=0x00000000
T31 M 1.564357 

# measurePascal interfDenver2 threads1
## ring0_throttle_mask=0x00000040 niso_throttle_mask=0x00000000 niso_throttle_mask_1=0x00000000 ring1_throttle=0x00000000 ring3_throttle=0x00000000 niso_throttle=0x00000000 outstanding_req=0x80000001 outstanding_req_ring3=0x00000000 outstanding_req_niso=0x00000000
T0 M 31.020081 I0 6.675268 
## ring0_throttle_mask=0x00000040 niso_throttle_mask=0x00000000 niso_throttle_mask_1=0x00000000 ring1_throttle=0x00010001 ring3_throttle=0x00010001 niso_throttle=0x00000000 outstanding_req=0x80000001 outstanding_req_ring3=0x00000000 outstanding_req_niso=0x00000000
T1 M 24.834034 I0 6.682610 
## ring0_throttle_mask=0x00000040 niso_throttle_mask=0x00000000 niso_throttle_mask_1=0x00000000 ring1_throttle=0x00020002 ring3_throttle=0x00020002 niso_throttle=0x00000000 outstanding_req=0x80000001 outstanding_req_ring3=0x00000000 outstanding_req_niso=0x00000000
T2 M 16.721825 I0 6.515419 
## ring0_throttle_mask=0x00000040 niso_throttle_mask=0x00000000 niso_throttle_mask_1=0x00000000 ring1_throttle=0x00040004 ring3_throttle=0x00040004 niso_throttle=0x00000000 outstanding_req=0x80000001 outstanding_req_ring3=0x00000000 outstanding_req_niso=0x00000000
T4 M 10.039446 I0 5.790758 
## ring0_throttle_mask=0x00000040 niso_throttle_mask=0x00000000 niso_throttle_mask_1=0x00000000 ring1_throttle=0x00080008 ring3_throttle=0x00080008 niso_throttle=0x00000000 outstanding_req=0x80000001 outstanding_req_ring3=0x00000000 outstanding_req_niso=0x00000000
T8 M 5.507640 I0 4.557146 
## ring0_throttle_mask=0x00000040 niso_throttle_mask=0x00000000 niso_throttle_mask_1=0x00000000 ring1_throttle=0x00100010 ring3_throttle=0x00100010 niso_throttle=0x00000000 outstanding_req=0x80000001 outstanding_req_ring3=0x00000000 outstanding_req_niso=0x00000000
T16 M 2.903717 I0 2.972142 
## ring0_throttle_mask=0x00000040 niso_throttle_mask=0x00000000 niso_throttle_mask_1=0x00000000 ring1_throttle=0x001F001F ring3_throttle=0x001F001F niso_throttle=0x00000000 outstanding_req=0x80000001 outstanding_req_ring3=0x00000000 outstanding_req_niso=0x00000000
T31 M 1.486195 I0 1.749733 

# measurePascal interfDenver2 threads2
## ring0_throttle_mask=0x00000040 niso_throttle_mask=0x00000000 niso_throttle_mask_1=0x00000000 ring1_throttle=0x00000000 ring3_throttle=0x00000000 niso_throttle=0x00000000 outstanding_req=0x80000001 outstanding_req_ring3=0x00000000 outstanding_req_niso=0x00000000
T0 M 25.682196 I0 5.991608 I1 6.009109 
## ring0_throttle_mask=0x00000040 niso_throttle_mask=0x00000000 niso_throttle_mask_1=0x00000000 ring1_throttle=0x00010001 ring3_throttle=0x00010001 niso_throttle=0x00000000 outstanding_req=0x80000001 outstanding_req_ring3=0x00000000 outstanding_req_niso=0x00000000
T1 M 24.433857 I0 5.932103 I1 5.958454 
## ring0_throttle_mask=0x00000040 niso_throttle_mask=0x00000000 niso_throttle_mask_1=0x00000000 ring1_throttle=0x00020002 ring3_throttle=0x00020002 niso_throttle=0x00000000 outstanding_req=0x80000001 outstanding_req_ring3=0x00000000 outstanding_req_niso=0x00000000
T2 M 16.706146 I0 5.736321 I1 5.468704 
## ring0_throttle_mask=0x00000040 niso_throttle_mask=0x00000000 niso_throttle_mask_1=0x00000000 ring1_throttle=0x00040004 ring3_throttle=0x00040004 niso_throttle=0x00000000 outstanding_req=0x80000001 outstanding_req_ring3=0x00000000 outstanding_req_niso=0x00000000
T4 M 10.038252 I0 5.092182 I1 4.846741 
## ring0_throttle_mask=0x00000040 niso_throttle_mask=0x00000000 niso_throttle_mask_1=0x00000000 ring1_throttle=0x00080008 ring3_throttle=0x00080008 niso_throttle=0x00000000 outstanding_req=0x80000001 outstanding_req_ring3=0x00000000 outstanding_req_niso=0x00000000
T8 M 5.287214 I0 3.872333 I1 3.874148 
## ring0_throttle_mask=0x00000040 niso_throttle_mask=0x00000000 niso_throttle_mask_1=0x00000000 ring1_throttle=0x00100010 ring3_throttle=0x00100010 niso_throttle=0x00000000 outstanding_req=0x80000001 outstanding_req_ring3=0x00000000 outstanding_req_niso=0x00000000
T16 M 2.949229 I0 2.462163 I1 2.200005 
## ring0_throttle_mask=0x00000040 niso_throttle_mask=0x00000000 niso_throttle_mask_1=0x00000000 ring1_throttle=0x001F001F ring3_throttle=0x001F001F niso_throttle=0x00000000 outstanding_req=0x80000001 outstanding_req_ring3=0x00000000 outstanding_req_niso=0x00000000
T31 M 1.564381 I0 1.251668 I1 1.259753 
