
# measureDenver2
## ring0_throttle_mask=0x00008080 niso_throttle_mask=0x00000000 niso_throttle_mask_1=0x00000000 ring1_throttle=0x00000000 ring3_throttle=0x00000000 niso_throttle=0x00000000 outstanding_req=0x80000100 outstanding_req_ring3=0x00000000 outstanding_req_niso=0x00000000
T0 M 6.947081 
## ring0_throttle_mask=0x00008080 niso_throttle_mask=0x00000000 niso_throttle_mask_1=0x00000000 ring1_throttle=0x00010001 ring3_throttle=0x00000000 niso_throttle=0x00000000 outstanding_req=0x80000100 outstanding_req_ring3=0x00000000 outstanding_req_niso=0x00000000
T1 M 6.950372 
## ring0_throttle_mask=0x00008080 niso_throttle_mask=0x00000000 niso_throttle_mask_1=0x00000000 ring1_throttle=0x00020002 ring3_throttle=0x00000000 niso_throttle=0x00000000 outstanding_req=0x80000100 outstanding_req_ring3=0x00000000 outstanding_req_niso=0x00000000
T2 M 6.705606 
## ring0_throttle_mask=0x00008080 niso_throttle_mask=0x00000000 niso_throttle_mask_1=0x00000000 ring1_throttle=0x00040004 ring3_throttle=0x00000000 niso_throttle=0x00000000 outstanding_req=0x80000100 outstanding_req_ring3=0x00000000 outstanding_req_niso=0x00000000
T4 M 6.003070 
## ring0_throttle_mask=0x00008080 niso_throttle_mask=0x00000000 niso_throttle_mask_1=0x00000000 ring1_throttle=0x00080008 ring3_throttle=0x00000000 niso_throttle=0x00000000 outstanding_req=0x80000100 outstanding_req_ring3=0x00000000 outstanding_req_niso=0x00000000
T8 M 4.825161 
## ring0_throttle_mask=0x00008080 niso_throttle_mask=0x00000000 niso_throttle_mask_1=0x00000000 ring1_throttle=0x00100010 ring3_throttle=0x00000000 niso_throttle=0x00000000 outstanding_req=0x80000100 outstanding_req_ring3=0x00000000 outstanding_req_niso=0x00000000
T16 M 3.139420 
## ring0_throttle_mask=0x00008080 niso_throttle_mask=0x00000000 niso_throttle_mask_1=0x00000000 ring1_throttle=0x001F001F ring3_throttle=0x00000000 niso_throttle=0x00000000 outstanding_req=0x80000100 outstanding_req_ring3=0x00000000 outstanding_req_niso=0x00000000
T31 M 1.859569 

# measurePascal
## ring0_throttle_mask=0x00008080 niso_throttle_mask=0x00000000 niso_throttle_mask_1=0x00000000 ring1_throttle=0x00000000 ring3_throttle=0x00000000 niso_throttle=0x00000000 outstanding_req=0x80000100 outstanding_req_ring3=0x00000000 outstanding_req_niso=0x00000000
T0 M 36.061337 
## ring0_throttle_mask=0x00008080 niso_throttle_mask=0x00000000 niso_throttle_mask_1=0x00000000 ring1_throttle=0x00010001 ring3_throttle=0x00000000 niso_throttle=0x00000000 outstanding_req=0x80000100 outstanding_req_ring3=0x00000000 outstanding_req_niso=0x00000000
T1 M 24.731247 
## ring0_throttle_mask=0x00008080 niso_throttle_mask=0x00000000 niso_throttle_mask_1=0x00000000 ring1_throttle=0x00020002 ring3_throttle=0x00000000 niso_throttle=0x00000000 outstanding_req=0x80000100 outstanding_req_ring3=0x00000000 outstanding_req_niso=0x00000000
T2 M 16.523695 
## ring0_throttle_mask=0x00008080 niso_throttle_mask=0x00000000 niso_throttle_mask_1=0x00000000 ring1_throttle=0x00040004 ring3_throttle=0x00000000 niso_throttle=0x00000000 outstanding_req=0x80000100 outstanding_req_ring3=0x00000000 outstanding_req_niso=0x00000000
T4 M 9.895235 
## ring0_throttle_mask=0x00008080 niso_throttle_mask=0x00000000 niso_throttle_mask_1=0x00000000 ring1_throttle=0x00080008 ring3_throttle=0x00000000 niso_throttle=0x00000000 outstanding_req=0x80000100 outstanding_req_ring3=0x00000000 outstanding_req_niso=0x00000000
T8 M 5.489631 
## ring0_throttle_mask=0x00008080 niso_throttle_mask=0x00000000 niso_throttle_mask_1=0x00000000 ring1_throttle=0x00100010 ring3_throttle=0x00000000 niso_throttle=0x00000000 outstanding_req=0x80000100 outstanding_req_ring3=0x00000000 outstanding_req_niso=0x00000000
T16 M 2.947972 
## ring0_throttle_mask=0x00008080 niso_throttle_mask=0x00000000 niso_throttle_mask_1=0x00000000 ring1_throttle=0x001F001F ring3_throttle=0x00000000 niso_throttle=0x00000000 outstanding_req=0x80000100 outstanding_req_ring3=0x00000000 outstanding_req_niso=0x00000000
T31 M 1.564122 

# measurePascal interfDenver2 threads1
## ring0_throttle_mask=0x00008080 niso_throttle_mask=0x00000000 niso_throttle_mask_1=0x00000000 ring1_throttle=0x00000000 ring3_throttle=0x00000000 niso_throttle=0x00000000 outstanding_req=0x80000100 outstanding_req_ring3=0x00000000 outstanding_req_niso=0x00000000
T0 M 30.810600 I0 6.639076 
## ring0_throttle_mask=0x00008080 niso_throttle_mask=0x00000000 niso_throttle_mask_1=0x00000000 ring1_throttle=0x00010001 ring3_throttle=0x00000000 niso_throttle=0x00000000 outstanding_req=0x80000100 outstanding_req_ring3=0x00000000 outstanding_req_niso=0x00000000
T1 M 24.273043 I0 6.702277 
## ring0_throttle_mask=0x00008080 niso_throttle_mask=0x00000000 niso_throttle_mask_1=0x00000000 ring1_throttle=0x00020002 ring3_throttle=0x00000000 niso_throttle=0x00000000 outstanding_req=0x80000100 outstanding_req_ring3=0x00000000 outstanding_req_niso=0x00000000
T2 M 16.713417 I0 6.424619 
## ring0_throttle_mask=0x00008080 niso_throttle_mask=0x00000000 niso_throttle_mask_1=0x00000000 ring1_throttle=0x00040004 ring3_throttle=0x00000000 niso_throttle=0x00000000 outstanding_req=0x80000100 outstanding_req_ring3=0x00000000 outstanding_req_niso=0x00000000
T4 M 9.898975 I0 5.782272 
## ring0_throttle_mask=0x00008080 niso_throttle_mask=0x00000000 niso_throttle_mask_1=0x00000000 ring1_throttle=0x00080008 ring3_throttle=0x00000000 niso_throttle=0x00000000 outstanding_req=0x80000100 outstanding_req_ring3=0x00000000 outstanding_req_niso=0x00000000
T8 M 5.507511 I0 4.548759 
## ring0_throttle_mask=0x00008080 niso_throttle_mask=0x00000000 niso_throttle_mask_1=0x00000000 ring1_throttle=0x00100010 ring3_throttle=0x00000000 niso_throttle=0x00000000 outstanding_req=0x80000100 outstanding_req_ring3=0x00000000 outstanding_req_niso=0x00000000
T16 M 2.947930 I0 2.964312 
## ring0_throttle_mask=0x00008080 niso_throttle_mask=0x00000000 niso_throttle_mask_1=0x00000000 ring1_throttle=0x001F001F ring3_throttle=0x00000000 niso_throttle=0x00000000 outstanding_req=0x80000100 outstanding_req_ring3=0x00000000 outstanding_req_niso=0x00000000
T31 M 1.482733 I0 1.747804 

# measurePascal interfDenver2 threads2
## ring0_throttle_mask=0x00008080 niso_throttle_mask=0x00000000 niso_throttle_mask_1=0x00000000 ring1_throttle=0x00000000 ring3_throttle=0x00000000 niso_throttle=0x00000000 outstanding_req=0x80000100 outstanding_req_ring3=0x00000000 outstanding_req_niso=0x00000000
T0 M 25.497961 I0 5.976984 I1 6.000026 
## ring0_throttle_mask=0x00008080 niso_throttle_mask=0x00000000 niso_throttle_mask_1=0x00000000 ring1_throttle=0x00010001 ring3_throttle=0x00000000 niso_throttle=0x00000000 outstanding_req=0x80000100 outstanding_req_ring3=0x00000000 outstanding_req_niso=0x00000000
T1 M 24.402323 I0 5.928708 I1 5.674599 
## ring0_throttle_mask=0x00008080 niso_throttle_mask=0x00000000 niso_throttle_mask_1=0x00000000 ring1_throttle=0x00020002 ring3_throttle=0x00000000 niso_throttle=0x00000000 outstanding_req=0x80000100 outstanding_req_ring3=0x00000000 outstanding_req_niso=0x00000000
T2 M 16.708229 I0 5.706308 I1 5.456001 
## ring0_throttle_mask=0x00008080 niso_throttle_mask=0x00000000 niso_throttle_mask_1=0x00000000 ring1_throttle=0x00040004 ring3_throttle=0x00000000 niso_throttle=0x00000000 outstanding_req=0x80000100 outstanding_req_ring3=0x00000000 outstanding_req_niso=0x00000000
T4 M 9.373158 I0 5.091514 I1 4.846214 
## ring0_throttle_mask=0x00008080 niso_throttle_mask=0x00000000 niso_throttle_mask_1=0x00000000 ring1_throttle=0x00080008 ring3_throttle=0x00000000 niso_throttle=0x00000000 outstanding_req=0x80000100 outstanding_req_ring3=0x00000000 outstanding_req_niso=0x00000000
T8 M 5.227979 I0 3.857995 I1 3.864766 
## ring0_throttle_mask=0x00008080 niso_throttle_mask=0x00000000 niso_throttle_mask_1=0x00000000 ring1_throttle=0x00100010 ring3_throttle=0x00000000 niso_throttle=0x00000000 outstanding_req=0x80000100 outstanding_req_ring3=0x00000000 outstanding_req_niso=0x00000000
T16 M 2.903371 I0 2.461868 I1 2.194651 
## ring0_throttle_mask=0x00008080 niso_throttle_mask=0x00000000 niso_throttle_mask_1=0x00000000 ring1_throttle=0x001F001F ring3_throttle=0x00000000 niso_throttle=0x00000000 outstanding_req=0x80000100 outstanding_req_ring3=0x00000000 outstanding_req_niso=0x00000000
T31 M 1.564143 I0 1.248847 I1 1.255533 
